<?xml version="1.0" encoding="UTF-8" standalone="no"?>
<!DOCTYPE svg PUBLIC "-//W3C//DTD SVG 1.1//EN"
"http://www.w3.org/Graphics/SVG/1.1/DTD/svg11.dtd">
<svg version="1.1" xmlns="http://www.w3.org/2000/svg" xmlns:xlink="http://www.w3.org/1999/xlink">
<defs>
<clipPath id="c0_16"><path d="M12.5,826.5l0,-306l910,0l0,306Z" /></clipPath>
<clipPath id="c1_16"><path d="M12.5,1197.5l0,-1185l910,0l0,1185Z" /></clipPath>
<style type="text/css"><![CDATA[
.g2_16{
fill: none;
stroke: #FF0000;
stroke-width: 4;
stroke-linecap: butt;
stroke-linejoin: round;
}
.g1_16{
fill: none;
stroke: #000000;
stroke-width: 2;
stroke-linecap: butt;
stroke-linejoin: bevel;
}
]]></style>
</defs>
<image x="171" y="523" width="564" height="298" xlink:href="img/1.png" />
<g clip-path="url(#c0_16)">
<path d="M171,523l564,0l0,298l-564,0Z" class="g1_16" />
</g>
<g clip-path="url(#c1_16)">
<path d="M189,616l235,0l0,40l-235,0Z" class="g2_16" />
<path d="M275,711l95,0l0,31l-95,0Z" class="g2_16" />
</g>
</svg>