<?xml version="1.0" encoding="UTF-8" standalone="no"?>
<!DOCTYPE svg PUBLIC "-//W3C//DTD SVG 1.1//EN"
"http://www.w3.org/Graphics/SVG/1.1/DTD/svg11.dtd">
<svg version="1.1" xmlns="http://www.w3.org/2000/svg" xmlns:xlink="http://www.w3.org/1999/xlink">
<defs>
<clipPath id="c0_4"><path d="M12.5,331.5l0,-221l910,0l0,221Z" /></clipPath>
<clipPath id="c1_4"><path d="M12.5,688.5l0,-197l910,0l0,197Z" /></clipPath>
<clipPath id="c2_4"><path d="M12.5,1197.5l0,-1185l910,0l0,1185Z" /></clipPath>
<style type="text/css"><![CDATA[
.g2_4{
fill: none;
stroke: #FF0000;
stroke-width: 4;
stroke-linecap: butt;
stroke-linejoin: round;
}
.g1_4{
fill: none;
stroke: #000000;
stroke-width: 2;
stroke-linecap: butt;
stroke-linejoin: round;
}
]]></style>
</defs>
<image x="165" y="110" width="867" height="630" xlink:href="img/1.png" />
<g clip-path="url(#c0_4)">
<path d="M165,110l483,0l0,203l-483,0Z" class="g1_4" />
</g>
<image x="165" y="428" width="938" height="681" xlink:href="img/2.png" />
<g clip-path="url(#c1_4)">
<path d="M165,491l485,0l0,179l-485,0Z" class="g1_4" />
</g>
<g clip-path="url(#c2_4)">
<path d="M382,590l238,0l0,47l-238,0Z" class="g2_4" />
<path d="M363,218l98,0l0,40l-98,0Z" class="g2_4" />
</g>
</svg>