<?xml version="1.0" encoding="UTF-8" standalone="no"?>
<!DOCTYPE svg PUBLIC "-//W3C//DTD SVG 1.1//EN"
"http://www.w3.org/Graphics/SVG/1.1/DTD/svg11.dtd">
<svg version="1.1" xmlns="http://www.w3.org/2000/svg" xmlns:xlink="http://www.w3.org/1999/xlink">
<defs>
<style type="text/css"><![CDATA[
.g2_33{
fill: none;
stroke: #FF0000;
stroke-width: 4;
stroke-linecap: butt;
stroke-linejoin: round;
}
.g1_33{
fill: none;
stroke: #000000;
stroke-width: 2;
stroke-linecap: butt;
stroke-linejoin: round;
}
]]></style>
</defs>
<image x="159" y="151" width="663" height="324" xlink:href="img/1.png" />
<path d="M171,161l628,0l0,278l-628,0Z" class="g1_33" />
<image x="140" y="344" width="773" height="376" xlink:href="img/2.png" />
<path d="M154,523l594,0l0,156l-594,0Z" class="g1_33" />
<image x="94" y="764" width="716" height="344" xlink:href="img/3.png" />
<path d="M94,763l708,0l0,185L94,948Z" class="g1_33" />
<path d="M174,334l481,0l0,68l-481,0Z" class="g2_33" />
<path d="M174,636l151,0l0,41l-151,0Z" class="g2_33" />
<path d="M559,801l233,0l0,41l-233,0Z" class="g2_33" />
</svg>