ALTER TABLE `event` ADD `eventID` VARCHAR(8) NOT NULL AFTER `restaurant`, ADD `maxpax` INT NOT NULL AFTER `eventID`;
update event set eventID = FLOOR(RAND()*100000000) where eventID < 10000000;
update event set eventID = FLOOR(RAND()*100000000) where eventID < 10000000;
update event set eventID = FLOOR(RAND()*100000000) where eventID < 10000000;
update event set eventID = FLOOR(RAND()*100000000) where eventID < 10000000;