<?xml version="1.0" encoding="UTF-8" standalone="no"?>
<!DOCTYPE svg PUBLIC "-//W3C//DTD SVG 1.1//EN"
"http://www.w3.org/Graphics/SVG/1.1/DTD/svg11.dtd">
<svg version="1.1" xmlns="http://www.w3.org/2000/svg" xmlns:xlink="http://www.w3.org/1999/xlink">
<defs>
<clipPath id="c0_19"><path d="M12.5,1197.5l0,-1185l910,0l0,1185Z" /></clipPath>
<clipPath id="c1_19"><path d="M12.5,995.5l0,-228l910,0l0,228Z" /></clipPath>
<style type="text/css"><![CDATA[
.g2_19{
fill: none;
stroke: #000000;
stroke-width: 2;
stroke-linecap: butt;
stroke-linejoin: bevel;
}
.g3_19{
fill: none;
stroke: #FF0000;
stroke-width: 4;
stroke-linecap: butt;
stroke-linejoin: round;
}
.g1_19{
fill: none;
stroke: #000000;
stroke-width: 1;
stroke-linecap: butt;
stroke-linejoin: miter;
}
]]></style>
</defs>
<g clip-path="url(#c0_19)">
<path d="M112.5,299.5l0,-7" class="g1_19" />
<path d="M112.5,293.5l0,-1" class="g1_19" />
<path d="M112.5,293.5l361,0" class="g1_19" />
<path d="M473.5,299.5l0,-6" class="g1_19" />
<path d="M473.5,293.5l0,-1" class="g1_19" />
<path d="M474.5,293.5l370,0" class="g1_19" />
<path d="M844.5,299.5l0,-7" class="g1_19" />
<path d="M844.5,293.5l0,-1" class="g1_19" />
<path d="M112.5,654.5l0,-355" class="g1_19" />
<path d="M112.5,654.5l361,0" class="g1_19" />
<path d="M473.5,654.5l0,-355" class="g1_19" />
<path d="M474.5,654.5l370,0" class="g1_19" />
<path d="M844.5,654.5l0,-355" class="g1_19" />
</g>
<image x="118" y="299" width="354" height="331" xlink:href="img/1.png" />
<image x="480" y="299" width="362" height="331" xlink:href="img/2.png" />
<image x="177" y="770" width="584" height="208" xlink:href="img/3.png" />
<g clip-path="url(#c1_19)">
<path d="M176,769l585,0l0,208l-585,0Z" class="g2_19" />
</g>
<image x="166" y="1112" width="591" height="294" xlink:href="img/4.png" />
<g clip-path="url(#c0_19)">
<path d="M166,1111l590,0l0,294l-590,0Z" class="g2_19" />
<path d="M303,814l193,0l0,26l-193,0Z" class="g3_19" />
</g>
</svg>