<?xml version="1.0" encoding="UTF-8" standalone="no"?>
<svg width="169px" height="77px" viewBox="0 0 169 77" version="1.1" xmlns="http://www.w3.org/2000/svg" xmlns:xlink="http://www.w3.org/1999/xlink" xmlns:sketch="http://www.bohemiancoding.com/sketch/ns">
    <!-- Generator: Sketch 3.3.3 (12072) - http://www.bohemiancoding.com/sketch -->
    <title>Slice 1</title>
    <desc>Created with Sketch.</desc>
    <defs></defs>
    <g id="Page-1" stroke="none" stroke-width="1" fill="none" fill-rule="evenodd" sketch:type="MSPage">
        <g id="Layer-1" sketch:type="MSLayerGroup">
            <path d="M32.084,14.0026 C32.084,18.4776 28.423,22.1386 23.948,22.1386 L15.961,22.1386 C11.486,22.1386 7.825,18.4776 7.825,14.0026 L7.825,11.6696 C7.825,7.1946 11.486,3.5326 15.961,3.5326 L23.948,3.5326 C28.423,3.5326 32.084,7.1946 32.084,11.6696 L32.084,14.0026 L32.084,14.0026 Z" id="Shape" fill="#E6DBB7" sketch:type="MSShapeGroup"></path>
            <path d="M8.6037,8.991 C8.0017,9.106 7.3557,8.932 6.8947,8.466 C6.1867,7.751 6.2027,6.534 6.9767,5.904 C10.8597,2.744 15.2517,0.997 20.0297,1 C24.7407,1.003 29.0887,2.724 32.9387,5.815 C33.7197,6.441 33.7437,7.658 33.0397,8.377 C32.3367,9.096 31.1967,9.141 30.4327,8.479 C27.5537,5.986 23.8307,4.621 20.0257,4.616 C16.1707,4.612 12.4007,6.005 9.4997,8.552 C9.2357,8.784 8.9257,8.929 8.6037,8.991" id="Shape" fill="#CFC193" sketch:type="MSShapeGroup"></path>
            <path d="M7.8424,63.881 C7.8424,59.406 11.5034,55.745 15.9784,55.745 L23.9654,55.745 C28.4404,55.745 32.1014,59.406 32.1014,63.881 L32.1014,66.214 C32.1014,70.689 28.4404,74.351 23.9654,74.351 L15.9784,74.351 C11.5034,74.351 7.8424,70.689 7.8424,66.214 L7.8424,63.881 L7.8424,63.881 Z" id="Shape" fill="#E6DBB7" sketch:type="MSShapeGroup"></path>
            <path d="M31.3228,68.8926 C31.9248,68.7776 32.5708,68.9516 33.0318,69.4176 C33.7398,70.1326 33.7238,71.3496 32.9498,71.9796 C29.0668,75.1396 24.6748,76.8866 19.8968,76.8836 C15.1858,76.8806 10.8378,75.1596 6.9878,72.0686 C6.2068,71.4426 6.1828,70.2256 6.8868,69.5066 C7.5898,68.7876 8.7298,68.7426 9.4938,69.4046 C12.3728,71.8976 16.0958,73.2626 19.9008,73.2676 C23.7558,73.2716 27.5258,71.8786 30.4268,69.3316 C30.6908,69.0996 31.0008,68.9546 31.3228,68.8926" id="Shape" fill="#CFC193" sketch:type="MSShapeGroup"></path>
            <path d="M64.3122,14.0026 C64.3122,18.4776 60.6512,22.1386 56.1762,22.1386 L48.1892,22.1386 C43.7142,22.1386 40.0532,18.4776 40.0532,14.0026 L40.0532,11.6696 C40.0532,7.1946 43.7142,3.5326 48.1892,3.5326 L56.1762,3.5326 C60.6512,3.5326 64.3122,7.1946 64.3122,11.6696 L64.3122,14.0026 L64.3122,14.0026 Z" id="Shape" fill="#E6DBB7" sketch:type="MSShapeGroup"></path>
            <path d="M40.8319,8.991 C40.2299,9.106 39.5839,8.932 39.1229,8.466 C38.4149,7.751 38.4309,6.534 39.2049,5.904 C43.0879,2.744 47.4799,0.997 52.2579,1 C56.9689,1.003 61.3169,2.724 65.1669,5.815 C65.9479,6.441 65.9719,7.658 65.2679,8.377 C64.5649,9.096 63.4249,9.141 62.6609,8.479 C59.7819,5.986 56.0589,4.621 52.2539,4.616 C48.3989,4.612 44.6289,6.005 41.7279,8.552 C41.4639,8.784 41.1539,8.929 40.8319,8.991" id="Shape" fill="#CFC193" sketch:type="MSShapeGroup"></path>
            <path d="M40.0706,63.881 C40.0706,59.406 43.7316,55.745 48.2066,55.745 L56.1936,55.745 C60.6686,55.745 64.3296,59.406 64.3296,63.881 L64.3296,66.214 C64.3296,70.689 60.6686,74.351 56.1936,74.351 L48.2066,74.351 C43.7316,74.351 40.0706,70.689 40.0706,66.214 L40.0706,63.881 L40.0706,63.881 Z" id="Shape" fill="#E6DBB7" sketch:type="MSShapeGroup"></path>
            <path d="M63.551,68.8926 C64.153,68.7776 64.799,68.9516 65.26,69.4176 C65.968,70.1326 65.952,71.3496 65.178,71.9796 C61.295,75.1396 56.903,76.8866 52.125,76.8836 C47.414,76.8806 43.067,75.1596 39.216,72.0686 C38.435,71.4426 38.411,70.2256 39.115,69.5066 C39.818,68.7876 40.958,68.7426 41.722,69.4046 C44.601,71.8976 48.324,73.2626 52.129,73.2676 C55.984,73.2716 59.754,71.8786 62.655,69.3316 C62.919,69.0996 63.229,68.9546 63.551,68.8926" id="Shape" fill="#CFC193" sketch:type="MSShapeGroup"></path>
            <path d="M96.2826,14.0026 C96.2826,18.4776 92.6216,22.1386 88.1466,22.1386 L80.1596,22.1386 C75.6846,22.1386 72.0236,18.4776 72.0236,14.0026 L72.0236,11.6696 C72.0236,7.1946 75.6846,3.5326 80.1596,3.5326 L88.1466,3.5326 C92.6216,3.5326 96.2826,7.1946 96.2826,11.6696 L96.2826,14.0026 L96.2826,14.0026 Z" id="Shape" fill="#E6DBB7" sketch:type="MSShapeGroup"></path>
            <path d="M72.8023,8.991 C72.2003,9.106 71.5543,8.932 71.0933,8.466 C70.3853,7.751 70.4013,6.534 71.1753,5.904 C75.0583,2.744 79.4503,0.997 84.2283,1 C88.9393,1.003 93.2863,2.724 97.1373,5.815 C97.9183,6.441 97.9423,7.658 97.2383,8.377 C96.5353,9.096 95.3953,9.141 94.6313,8.479 C91.7523,5.986 88.0293,4.621 84.2243,4.616 C80.3693,4.612 76.5993,6.005 73.6983,8.552 C73.4343,8.784 73.1243,8.929 72.8023,8.991" id="Shape" fill="#CFC193" sketch:type="MSShapeGroup"></path>
            <path d="M72.041,63.881 C72.041,59.406 75.702,55.745 80.177,55.745 L88.164,55.745 C92.639,55.745 96.3,59.406 96.3,63.881 L96.3,66.214 C96.3,70.689 92.639,74.351 88.164,74.351 L80.177,74.351 C75.702,74.351 72.041,70.689 72.041,66.214 L72.041,63.881 L72.041,63.881 Z" id="Shape" fill="#E6DBB7" sketch:type="MSShapeGroup"></path>
            <path d="M95.5214,68.8926 C96.1234,68.7776 96.7694,68.9516 97.2304,69.4176 C97.9384,70.1326 97.9224,71.3496 97.1484,71.9796 C93.2654,75.1396 88.8734,76.8866 84.0954,76.8836 C79.3844,76.8806 75.0374,75.1596 71.1864,72.0686 C70.4054,71.4426 70.3814,70.2256 71.0854,69.5066 C71.7884,68.7876 72.9284,68.7426 73.6924,69.4046 C76.5714,71.8976 80.2944,73.2626 84.0994,73.2676 C87.9544,73.2716 91.7244,71.8786 94.6254,69.3316 C94.8894,69.0996 95.1994,68.9546 95.5214,68.8926" id="Shape" fill="#CFC193" sketch:type="MSShapeGroup"></path>
            <path d="M129.284,14.0026 C129.284,18.4776 125.623,22.1386 121.148,22.1386 L113.161,22.1386 C108.686,22.1386 105.025,18.4776 105.025,14.0026 L105.025,11.6696 C105.025,7.1946 108.686,3.5326 113.161,3.5326 L121.148,3.5326 C125.623,3.5326 129.284,7.1946 129.284,11.6696 L129.284,14.0026 L129.284,14.0026 Z" id="Shape" fill="#E6DBB7" sketch:type="MSShapeGroup"></path>
            <path d="M105.804,8.991 C105.202,9.106 104.556,8.932 104.095,8.466 C103.387,7.751 103.403,6.534 104.177,5.904 C108.06,2.744 112.452,0.997 117.23,1 C121.941,1.003 126.289,2.724 130.139,5.815 C130.92,6.441 130.944,7.658 130.24,8.377 C129.537,9.096 128.397,9.141 127.633,8.479 C124.754,5.986 121.031,4.621 117.226,4.616 C113.371,4.612 109.601,6.005 106.7,8.552 C106.436,8.784 106.126,8.929 105.804,8.991" id="Shape" fill="#CFC193" sketch:type="MSShapeGroup"></path>
            <path d="M105.043,63.881 C105.043,59.406 108.704,55.745 113.179,55.745 L121.166,55.745 C125.641,55.745 129.302,59.406 129.302,63.881 L129.302,66.214 C129.302,70.689 125.641,74.351 121.166,74.351 L113.179,74.351 C108.704,74.351 105.043,70.689 105.043,66.214 L105.043,63.881 L105.043,63.881 Z" id="Shape" fill="#E6DBB7" sketch:type="MSShapeGroup"></path>
            <path d="M128.523,68.8926 C129.125,68.7776 129.771,68.9516 130.232,69.4176 C130.94,70.1326 130.924,71.3496 130.15,71.9796 C126.267,75.1396 121.875,76.8866 117.097,76.8836 C112.386,76.8806 108.039,75.1596 104.188,72.0686 C103.407,71.4426 103.383,70.2256 104.087,69.5066 C104.79,68.7876 105.93,68.7426 106.694,69.4046 C109.573,71.8976 113.296,73.2626 117.101,73.2676 C120.956,73.2716 124.726,71.8786 127.627,69.3316 C127.891,69.0996 128.201,68.9546 128.523,68.8926" id="Shape" fill="#CFC193" sketch:type="MSShapeGroup"></path>
            <path d="M161.255,14.0026 C161.255,18.4776 157.594,22.1386 153.119,22.1386 L145.132,22.1386 C140.657,22.1386 136.996,18.4776 136.996,14.0026 L136.996,11.6696 C136.996,7.1946 140.657,3.5326 145.132,3.5326 L153.119,3.5326 C157.594,3.5326 161.255,7.1946 161.255,11.6696 L161.255,14.0026 L161.255,14.0026 Z" id="Shape" fill="#E6DBB7" sketch:type="MSShapeGroup"></path>
            <path d="M137.774,8.991 C137.172,9.106 136.526,8.932 136.065,8.466 C135.357,7.751 135.373,6.534 136.147,5.904 C140.03,2.744 144.422,0.997 149.2,1 C153.911,1.003 158.258,2.724 162.109,5.815 C162.89,6.441 162.914,7.658 162.21,8.377 C161.507,9.096 160.367,9.141 159.603,8.479 C156.724,5.986 153.001,4.621 149.196,4.616 C145.341,4.612 141.571,6.005 138.67,8.552 C138.406,8.784 138.096,8.929 137.774,8.991" id="Shape" fill="#CFC193" sketch:type="MSShapeGroup"></path>
            <path d="M137.013,63.881 C137.013,59.406 140.674,55.745 145.149,55.745 L153.136,55.745 C157.611,55.745 161.272,59.406 161.272,63.881 L161.272,66.214 C161.272,70.689 157.611,74.351 153.136,74.351 L145.149,74.351 C140.674,74.351 137.013,70.689 137.013,66.214 L137.013,63.881 L137.013,63.881 Z" id="Shape" fill="#E6DBB7" sketch:type="MSShapeGroup"></path>
            <path d="M160.493,68.8926 C161.095,68.7776 161.741,68.9516 162.202,69.4176 C162.91,70.1326 162.894,71.3496 162.12,71.9796 C158.237,75.1396 153.845,76.8866 149.067,76.8836 C144.356,76.8806 140.008,75.1596 136.158,72.0686 C135.377,71.4426 135.353,70.2256 136.057,69.5066 C136.76,68.7876 137.9,68.7426 138.664,69.4046 C141.543,71.8976 145.266,73.2626 149.071,73.2676 C152.926,73.2716 156.696,71.8786 159.597,69.3316 C159.861,69.0996 160.171,68.9546 160.493,68.8926" id="Shape" fill="#CFC193" sketch:type="MSShapeGroup"></path>
            <rect id="Rectangle-path" fill="#F6A623" sketch:type="MSShapeGroup" x="0" y="14.2036" width="168.889" height="49.22"></rect>
        </g>
    </g>
</svg>