<?xml version="1.0" encoding="UTF-8" standalone="no"?>
<svg width="77px" height="39px" viewBox="0 0 77 39" version="1.1" xmlns="http://www.w3.org/2000/svg" xmlns:xlink="http://www.w3.org/1999/xlink" xmlns:sketch="http://www.bohemiancoding.com/sketch/ns">
    <!-- Generator: Sketch 3.3.3 (12072) - http://www.bohemiancoding.com/sketch -->
    <title>Slice 1</title>
    <desc>Created with Sketch.</desc>
    <defs></defs>
    <g id="Page-1" stroke="none" stroke-width="1" fill="none" fill-rule="evenodd" sketch:type="MSPage">
        <g id="Layer-1" sketch:type="MSLayerGroup">
            <path d="M13.6057,7.3577 C18.0807,7.3577 21.7417,11.0187 21.7417,15.4937 L21.7417,23.4807 C21.7417,27.9557 18.0807,31.6167 13.6057,31.6167 L11.2727,31.6167 C6.7977,31.6167 3.1357,27.9557 3.1357,23.4807 L3.1357,15.4937 C3.1357,11.0187 6.7977,7.3577 11.2727,7.3577 L13.6057,7.3577 L13.6057,7.3577 Z" id="Shape" fill="#E6DBB7" sketch:type="MSShapeGroup"></path>
            <path d="M8.5941,30.8381 C8.7091,31.4401 8.5351,32.0861 8.0691,32.5471 C7.3541,33.2551 6.1371,33.2391 5.5071,32.4651 C2.3471,28.5821 0.6001,24.1901 0.6031,19.4121 C0.6061,14.7011 2.3271,10.3531 5.4181,6.5031 C6.0441,5.7221 7.2611,5.6981 7.9801,6.4021 C8.6991,7.1051 8.7441,8.2451 8.0821,9.0091 C5.5891,11.8881 4.2241,15.6111 4.2191,19.4161 C4.2151,23.2711 5.6081,27.0411 8.1551,29.9421 C8.3871,30.2061 8.5321,30.5161 8.5941,30.8381" id="Shape" fill="#CFC193" sketch:type="MSShapeGroup"></path>
            <path d="M63.4841,31.5993 C59.0091,31.5993 55.3481,27.9383 55.3481,23.4633 L55.3481,15.4763 C55.3481,11.0013 59.0091,7.3403 63.4841,7.3403 L65.8171,7.3403 C70.2921,7.3403 73.9541,11.0013 73.9541,15.4763 L73.9541,23.4633 C73.9541,27.9383 70.2921,31.5993 65.8171,31.5993 L63.4841,31.5993 L63.4841,31.5993 Z" id="Shape" fill="#E6DBB7" sketch:type="MSShapeGroup"></path>
            <path d="M68.4958,8.119 C68.3808,7.517 68.5548,6.871 69.0208,6.41 C69.7358,5.702 70.9528,5.718 71.5828,6.492 C74.7428,10.375 76.4898,14.767 76.4868,19.545 C76.4838,24.256 74.7628,28.603 71.6718,32.454 C71.0458,33.235 69.8288,33.259 69.1098,32.555 C68.3908,31.852 68.3458,30.712 69.0078,29.948 C71.5008,27.069 72.8658,23.346 72.8708,19.541 C72.8748,15.686 71.4818,11.916 68.9348,9.015 C68.7028,8.751 68.5578,8.441 68.4958,8.119" id="Shape" fill="#CFC193" sketch:type="MSShapeGroup"></path>
            <path d="M63.1608,28.0337 C63.1608,33.5337 58.6608,38.0337 53.1608,38.0337 L23.9408,38.0337 C18.4408,38.0337 13.9408,33.5337 13.9408,28.0337 L13.9408,10.6667 C13.9408,5.1667 18.4408,0.6667 23.9408,0.6667 L53.1608,0.6667 C58.6608,0.6667 63.1608,5.1667 63.1608,10.6667 L63.1608,28.0337 L63.1608,28.0337 Z" id="Shape" fill="#800000" sketch:type="MSShapeGroup"></path>
        </g>
    </g>
</svg>
