<?xml version="1.0" encoding="UTF-8" standalone="no"?>
<svg width="67px" height="40px" viewBox="0 0 67 40" version="1.1" xmlns="http://www.w3.org/2000/svg" xmlns:xlink="http://www.w3.org/1999/xlink" xmlns:sketch="http://www.bohemiancoding.com/sketch/ns">
    <!-- Generator: Sketch 3.3.3 (12072) - http://www.bohemiancoding.com/sketch -->
    <title>Slice 1</title>
    <desc>Created with Sketch.</desc>
    <defs></defs>
    <g id="Page-1" stroke="none" stroke-width="1" fill="none" fill-rule="evenodd" sketch:type="MSPage">
        <g id="Layer-1" sketch:type="MSLayerGroup">
            <path d="M14.0026,7.8409 C18.4776,7.8409 22.1386,11.5019 22.1386,15.9769 L22.1386,23.9639 C22.1386,28.4389 18.4776,32.0999 14.0026,32.0999 L11.6696,32.0999 C7.1946,32.0999 3.5326,28.4389 3.5326,23.9639 L3.5326,15.9769 C3.5326,11.5019 7.1946,7.8409 11.6696,7.8409 L14.0026,7.8409 L14.0026,7.8409 Z" id="Shape" fill="#E6DBB7" sketch:type="MSShapeGroup"></path>
            <path d="M8.9909,31.3212 C9.1059,31.9232 8.9319,32.5692 8.4659,33.0302 C7.7509,33.7382 6.5339,33.7222 5.9039,32.9482 C2.7439,29.0652 0.9969,24.6732 0.9999,19.8952 C1.0029,15.1842 2.7239,10.8362 5.8149,6.9862 C6.4409,6.2052 7.6579,6.1812 8.3769,6.8852 C9.0959,7.5882 9.1409,8.7282 8.4789,9.4922 C5.9859,12.3712 4.6209,16.0942 4.6159,19.8992 C4.6119,23.7542 6.0049,27.5242 8.5519,30.4252 C8.7839,30.6892 8.9289,30.9992 8.9909,31.3212" id="Shape" fill="#CFC193" sketch:type="MSShapeGroup"></path>
            <path d="M53.0523,32.0825 C48.5773,32.0825 44.9163,28.4215 44.9163,23.9465 L44.9163,15.9595 C44.9163,11.4845 48.5773,7.8235 53.0523,7.8235 L55.3853,7.8235 C59.8603,7.8235 63.5223,11.4845 63.5223,15.9595 L63.5223,23.9465 C63.5223,28.4215 59.8603,32.0825 55.3853,32.0825 L53.0523,32.0825 L53.0523,32.0825 Z" id="Shape" fill="#E6DBB7" sketch:type="MSShapeGroup"></path>
            <path d="M58.0639,8.6021 C57.9489,8.0001 58.1229,7.3541 58.5889,6.8931 C59.3039,6.1851 60.5209,6.2011 61.1509,6.9751 C64.3109,10.8581 66.0579,15.2501 66.0549,20.0281 C66.0519,24.7391 64.3309,29.0861 61.2399,32.9371 C60.6139,33.7181 59.3969,33.7421 58.6779,33.0381 C57.9589,32.3351 57.9139,31.1951 58.5759,30.4311 C61.0689,27.5521 62.4339,23.8291 62.4389,20.0241 C62.4429,16.1691 61.0499,12.3991 58.5029,9.4981 C58.2709,9.2341 58.1259,8.9241 58.0639,8.6021" id="Shape" fill="#CFC193" sketch:type="MSShapeGroup"></path>
            <path d="M52.7666,25.0478 C52.7666,32.7478 46.4666,39.0478 38.7666,39.0478 L28.3376,39.0478 C20.6376,39.0478 14.3376,32.7478 14.3376,25.0478 L14.3376,14.6188 C14.3376,6.9188 20.6376,0.6188 28.3376,0.6188 L38.7666,0.6188 C46.4666,0.6188 52.7666,6.9188 52.7666,14.6188 L52.7666,25.0478 L52.7666,25.0478 Z" id="Shape" fill="#D0011B" sketch:type="MSShapeGroup"></path>
        </g>
    </g>
</svg>