<?xml version="1.0" encoding="UTF-8" standalone="no"?>
<svg width="65px" height="41px" viewBox="0 0 65 41" version="1.1" xmlns="http://www.w3.org/2000/svg" xmlns:xlink="http://www.w3.org/1999/xlink" xmlns:sketch="http://www.bohemiancoding.com/sketch/ns">
    <!-- Generator: Sketch 3.3.3 (12072) - http://www.bohemiancoding.com/sketch -->
    <title>Slice 1</title>
    <desc>Created with Sketch.</desc>
    <defs></defs>
    <g id="Page-1" stroke="none" stroke-width="1" fill="none" fill-rule="evenodd" sketch:type="MSPage">
        <g id="Layer-1" sketch:type="MSLayerGroup">
            <path d="M13.9485,8.0934 C18.4235,8.0934 22.0845,11.7544 22.0845,16.2294 L22.0845,24.2164 C22.0845,28.6914 18.4235,32.3524 13.9485,32.3524 L11.6155,32.3524 C7.1405,32.3524 3.4785,28.6914 3.4785,24.2164 L3.4785,16.2294 C3.4785,11.7544 7.1405,8.0934 11.6155,8.0934 L13.9485,8.0934 L13.9485,8.0934 Z" id="Shape" fill="#E6DBB7" sketch:type="MSShapeGroup"></path>
            <path d="M8.9368,31.5737 C9.0518,32.1757 8.8778,32.8217 8.4118,33.2827 C7.6968,33.9907 6.4798,33.9747 5.8498,33.2007 C2.6898,29.3177 0.9428,24.9257 0.9458,20.1477 C0.9488,15.4367 2.6698,11.0897 5.7608,7.2387 C6.3868,6.4577 7.6038,6.4337 8.3228,7.1377 C9.0418,7.8407 9.0868,8.9807 8.4248,9.7447 C5.9318,12.6237 4.5668,16.3467 4.5618,20.1517 C4.5578,24.0067 5.9508,27.7767 8.4978,30.6777 C8.7298,30.9417 8.8748,31.2517 8.9368,31.5737" id="Shape" fill="#CFC193" sketch:type="MSShapeGroup"></path>
            <path d="M51.7091,32.335 C47.2341,32.335 43.5731,28.674 43.5731,24.199 L43.5731,16.212 C43.5731,11.737 47.2341,8.076 51.7091,8.076 L54.0421,8.076 C58.5171,8.076 62.1791,11.737 62.1791,16.212 L62.1791,24.199 C62.1791,28.674 58.5171,32.335 54.0421,32.335 L51.7091,32.335 L51.7091,32.335 Z" id="Shape" fill="#E6DBB7" sketch:type="MSShapeGroup"></path>
            <path d="M56.7207,8.8546 C56.6057,8.2526 56.7797,7.6066 57.2457,7.1456 C57.9607,6.4376 59.1777,6.4536 59.8077,7.2276 C62.9677,11.1106 64.7147,15.5026 64.7117,20.2806 C64.7087,24.9916 62.9877,29.3396 59.8967,33.1896 C59.2707,33.9706 58.0537,33.9946 57.3347,33.2906 C56.6157,32.5876 56.5707,31.4476 57.2327,30.6836 C59.7257,27.8046 61.0907,24.0816 61.0957,20.2766 C61.0997,16.4216 59.7067,12.6516 57.1597,9.7506 C56.9277,9.4866 56.7827,9.1766 56.7207,8.8546" id="Shape" fill="#CFC193" sketch:type="MSShapeGroup"></path>
            <path d="M52.5777,20.0858 C52.5777,9.0718 43.6497,0.1438 32.6357,0.1438 C21.6217,0.1438 12.6927,9.0718 12.6927,20.0858 C12.6927,31.0998 21.6217,40.0278 32.6357,40.0278 C43.6497,40.0278 52.5777,31.0998 52.5777,20.0858" id="Shape" fill="#BD0FE1" sketch:type="MSShapeGroup"></path>
        </g>
    </g>
</svg>