<?xml version="1.0" encoding="UTF-8" standalone="no"?>
<svg width="117px" height="43px" viewBox="0 0 117 43" version="1.1" xmlns="http://www.w3.org/2000/svg" xmlns:xlink="http://www.w3.org/1999/xlink" xmlns:sketch="http://www.bohemiancoding.com/sketch/ns">
    <!-- Generator: Sketch 3.4.2 (15855) - http://www.bohemiancoding.com/sketch -->
    <title>3-seater_sofa</title>
    <desc>Created with Sketch.</desc>
    <defs></defs>
    <g id="Page-1" stroke="none" stroke-width="1" fill="none" fill-rule="evenodd" sketch:type="MSPage">
        <g id="3-seater_sofa" sketch:type="MSLayerGroup" transform="translate(6.000000, 0.000000)">
            <g id="Group" sketch:type="MSShapeGroup">
                <path d="M0.3,37.1 L0.3,3.5 C0.3,2 1.6,0.7 3.1,0.7 L35.3,0.7 L35.3,37.1 L0.3,37.1 Z" id="Shape" stroke="#BDB086" stroke-width="0.4937" fill="#FFC0CB"></path>
                <rect id="Rectangle-path" stroke="#BDB086" stroke-width="0.4937" fill="#FFC0CB" x="35.3" y="0.7" width="35" height="36.3"></rect>
                <path d="M70.3,37.1 L70.3,0.7 L102.5,0.7 C104,0.7 105.3,2 105.3,3.5 L105.3,37.1 L70.3,37.1 Z" id="Shape" stroke="#BDB086" stroke-width="0.4937" fill="#FFC0CB"></path>
                <path d="M105.3,7.9 L105.3,26 C105.3,32.1 100.3,37.1 94.2,37.1 L11.4,37.1 C5.3,37.1 0.3,32.1 0.3,26 L0.3,7.9" id="Shape" stroke="#BDB086" stroke-width="10.7614"></path>
                <g transform="translate(84.000000, 19.000000)" id="Shape">
                    <path d="M18.7,8.6 C14.8,11.7 12.7,13.1 8.3,15.5 C5.1,17.2 1.6,16.6 0.7,14.3 C-0.2,12.1 1.4,9.3 4.1,7.8 C7.9,5.7 9.8,4.5 13.2,1.7 C15.7,-0.2 18.9,-0.6 20.6,1.1 C22.3,2.8 21.6,6.3 18.7,8.6 Z" fill="#FFC0CB"></path>
                    <path d="M20.6,1.1 C22.3,2.8 21.6,6.3 18.7,8.6 C14.8,11.7 12.7,13.1 8.3,15.5 C5.1,17.2 1.6,16.6 0.7,14.3 C-0.2,12.1 1.4,9.3 4.1,7.8 C7.9,5.7 9.8,4.5 13.2,1.7 C15.7,-0.2 18.9,-0.6 20.6,1.1 L20.6,1.1 Z" stroke="#BDB086" stroke-width="0.4937"></path>
                </g>
                <g transform="translate(1.000000, 19.000000)" id="Shape">
                    <path d="M1.9,1.1 C0.2,2.8 0.9,6.3 3.8,8.6 C7.7,11.7 9.8,13.1 14.2,15.5 C17.4,17.2 20.9,16.6 21.8,14.3 C22.7,12.1 21.1,9.3 18.4,7.8 C14.6,5.7 12.7,4.5 9.3,1.7 C6.8,-0.2 3.6,-0.6 1.9,1.1 L1.9,1.1 Z" fill="#CFC193"></path>
                    <path d="M1.9,1.1 C0.2,2.8 0.9,6.3 3.8,8.6 C7.7,11.7 9.8,13.1 14.2,15.5 C17.4,17.2 20.9,16.6 21.8,14.3 C22.7,12.1 21.1,9.3 18.4,7.8 C14.6,5.7 12.7,4.5 9.3,1.7 C6.8,-0.2 3.6,-0.6 1.9,1.1 L1.9,1.1 Z" stroke="#BDB086" stroke-width="0.4937" fill="#FFC0CB"></path>
                </g>
            </g>
        </g>
    </g>
</svg>