<?xml version="1.0" encoding="UTF-8" standalone="no"?>
<svg width="75px" height="72px" viewBox="0 0 75 72" version="1.1" xmlns="http://www.w3.org/2000/svg" xmlns:xlink="http://www.w3.org/1999/xlink" xmlns:sketch="http://www.bohemiancoding.com/sketch/ns">
    <!-- Generator: Sketch 3.3.3 (12072) - http://www.bohemiancoding.com/sketch -->
    <title>Slice 1</title>
    <desc>Created with Sketch.</desc>
    <defs></defs>
    <g id="Page-1" stroke="none" stroke-width="1" fill="none" fill-rule="evenodd" sketch:type="MSPage">
        <g id="Layer-1" sketch:type="MSLayerGroup">
            <path d="M11.4358,31.1483 C15.8548,30.4443 20.0468,33.4833 20.7518,37.9023 L22.0088,45.7893 C22.7128,50.2093 19.6738,54.4013 15.2538,55.1053 L12.9498,55.4723 C8.5308,56.1773 4.3388,53.1373 3.6338,48.7183 L2.3768,40.8313 C1.6728,36.4123 4.7118,32.2203 9.1318,31.5153 L11.4358,31.1483 L11.4358,31.1483 Z" id="Shape" fill="#E6DBB7" sketch:type="MSShapeGroup"></path>
            <path d="M10.1824,55.1247 C10.3914,55.7007 10.3204,56.3667 9.9324,56.8947 C9.3384,57.7067 8.1344,57.8827 7.3894,57.2167 C3.6584,53.8797 1.2424,49.8177 0.4924,45.0987 C-0.2466,40.4467 0.7694,35.8817 3.2154,31.5927 C3.7114,30.7237 4.9084,30.5077 5.7294,31.0897 C6.5504,31.6707 6.7744,32.7897 6.2414,33.6477 C4.2324,36.8837 3.4694,40.7757 4.0644,44.5337 C4.6664,48.3417 6.6364,51.8457 9.6074,54.3097 C9.8784,54.5337 10.0704,54.8167 10.1824,55.1247" id="Shape" fill="#CFC193" sketch:type="MSShapeGroup"></path>
            <path d="M57.2444,16.7322 C55.9794,21.0242 51.4324,23.5022 47.1404,22.2372 L39.4794,19.9792 C35.1864,18.7142 32.7094,14.1672 33.9744,9.8752 L34.6344,7.6362 C35.8994,3.3442 40.4464,0.8672 44.7384,2.1322 L52.3994,4.3892 C56.6924,5.6542 59.1694,10.2012 57.9044,14.4942 L57.2444,16.7322 L57.2444,16.7322 Z" id="Shape" fill="#E6DBB7" sketch:type="MSShapeGroup"></path>
            <path d="M36.1384,5.2877 C35.5284,5.2287 34.9584,4.8777 34.6474,4.3007 C34.1704,3.4147 34.5294,2.2517 35.4504,1.8667 C40.0684,-0.0663 44.7744,-0.5003 49.3574,0.8527 C53.8754,2.1867 57.5594,5.0667 60.3794,9.1207 C60.9504,9.9417 60.6304,11.1157 59.7514,11.6067 C58.8734,12.0977 57.7674,11.8177 57.2224,10.9677 C55.1644,7.7617 51.9794,5.3997 48.3304,4.3197 C44.6344,3.2257 40.6244,3.4967 37.1214,5.1197 C36.8024,5.2677 36.4644,5.3197 36.1384,5.2877" id="Shape" fill="#CFC193" sketch:type="MSShapeGroup"></path>
            <path d="M53.1304,65.3109 C49.5824,62.5839 48.9094,57.4499 51.6364,53.9019 L56.5024,47.5689 C59.2294,44.0209 64.3634,43.3479 67.9114,46.0749 L69.7624,47.4969 C73.3104,50.2229 73.9824,55.3569 71.2564,58.9059 L66.3894,65.2389 C63.6634,68.7869 58.5294,69.4589 54.9804,66.7329 L53.1304,65.3109 L53.1304,65.3109 Z" id="Shape" fill="#E6DBB7" sketch:type="MSShapeGroup"></path>
            <path d="M71.4109,49.746 C71.6859,49.199 72.2179,48.793 72.8689,48.711 C73.8669,48.585 74.8219,49.339 74.8499,50.337 C74.9899,55.341 73.6989,59.888 70.7859,63.675 C67.9129,67.409 63.8989,69.807 59.1019,70.978 C58.1299,71.215 57.1499,70.493 57.0089,69.497 C56.8669,68.501 57.5259,67.57 58.5159,67.367 C62.2479,66.603 65.5989,64.483 67.9209,61.468 C70.2729,58.414 71.4649,54.576 71.2129,50.724 C71.1899,50.373 71.2639,50.039 71.4109,49.746" id="Shape" fill="#CFC193" sketch:type="MSShapeGroup"></path>
            <path d="M43.2927,66.5854 L22.4337,61.1074 L11.5677,42.7584 L16.8867,21.9944 L35.2347,11.1284 L56.1587,16.3524 L67.0247,34.7014 L61.6407,55.7194 L43.2927,66.5854 L43.2927,66.5854 Z" id="Shape" fill="#000000" sketch:type="MSShapeGroup"></path>
        </g>
    </g>
</svg>