<?xml version="1.0" encoding="UTF-8" standalone="no"?>
<svg width="78px" height="78px" viewBox="0 0 78 78" version="1.1" xmlns="http://www.w3.org/2000/svg" xmlns:xlink="http://www.w3.org/1999/xlink" xmlns:sketch="http://www.bohemiancoding.com/sketch/ns">
    <!-- Generator: Sketch 3.4.2 (15855) - http://www.bohemiancoding.com/sketch -->
    <title>Layer 1</title>
    <desc>Created with Sketch.</desc>
    <defs></defs>
    <g id="Page-1" stroke="none" stroke-width="1" fill="none" fill-rule="evenodd" sketch:type="MSPage">
        <g id="Layer-1" sketch:type="MSLayerGroup">
            <path d="M50.8361,13.3231 C50.8361,17.7981 47.1751,21.4591 42.7001,21.4591 L34.7131,21.4591 C30.2381,21.4591 26.5771,17.7981 26.5771,13.3231 L26.5771,10.9901 C26.5771,6.5151 30.2381,2.8531 34.7131,2.8531 L42.7001,2.8531 C47.1751,2.8531 50.8361,6.5151 50.8361,10.9901 L50.8361,13.3231 L50.8361,13.3231 Z" id="Shape" fill="#E6DBB7" sketch:type="MSShapeGroup"></path>
            <path d="M27.3557,8.3114 C26.7537,8.4264 26.1077,8.2524 25.6467,7.7864 C24.9387,7.0714 24.9547,5.8544 25.7287,5.2244 C29.6117,2.0644 34.0037,0.3174 38.7817,0.3204 C43.4927,0.3234 47.8407,2.0444 51.6907,5.1354 C52.4717,5.7614 52.4957,6.9784 51.7917,7.6974 C51.0887,8.4164 49.9487,8.4614 49.1847,7.7994 C46.3057,5.3064 42.5827,3.9414 38.7777,3.9364 C34.9227,3.9324 31.1527,5.3254 28.2517,7.8724 C27.9877,8.1044 27.6777,8.2494 27.3557,8.3114" id="Shape" fill="#CFC193" sketch:type="MSShapeGroup"></path>
            <path d="M26.5945,64.7484 C26.5945,60.2734 30.2555,56.6124 34.7305,56.6124 L42.7175,56.6124 C47.1925,56.6124 50.8535,60.2734 50.8535,64.7484 L50.8535,67.0814 C50.8535,71.5564 47.1925,75.2184 42.7175,75.2184 L34.7305,75.2184 C30.2555,75.2184 26.5945,71.5564 26.5945,67.0814 L26.5945,64.7484 L26.5945,64.7484 Z" id="Shape" fill="#E6DBB7" sketch:type="MSShapeGroup"></path>
            <path d="M50.0748,69.76 C50.6768,69.645 51.3228,69.819 51.7838,70.285 C52.4918,71 52.4758,72.217 51.7018,72.847 C47.8188,76.007 43.4268,77.754 38.6488,77.751 C33.9378,77.748 29.5898,76.027 25.7398,72.936 C24.9588,72.31 24.9348,71.093 25.6388,70.374 C26.3418,69.655 27.4818,69.61 28.2458,70.272 C31.1248,72.765 34.8478,74.13 38.6528,74.135 C42.5078,74.139 46.2778,72.746 49.1788,70.199 C49.4428,69.967 49.7528,69.822 50.0748,69.76" id="Shape" fill="#CFC193" sketch:type="MSShapeGroup"></path>
            <path d="M11.4556,26.9149 C15.9306,26.9149 19.5916,30.5759 19.5916,35.0509 L19.5916,43.0379 C19.5916,47.5129 15.9306,51.1739 11.4556,51.1739 L9.1226,51.1739 C4.6476,51.1739 0.9856,47.5129 0.9856,43.0379 L0.9856,35.0509 C0.9856,30.5759 4.6476,26.9149 9.1226,26.9149 L11.4556,26.9149 L11.4556,26.9149 Z" id="Shape" fill="#E6DBB7" sketch:type="MSShapeGroup"></path>
            <path d="M7.991,50.3953 C8.106,50.9973 7.932,51.6433 7.466,52.1043 C6.751,52.8123 5.534,52.7963 4.904,52.0223 C1.744,48.1393 -0.003,43.7473 0,38.9693 C0.003,34.2583 1.724,29.9103 4.815,26.0603 C5.441,25.2793 6.658,25.2553 7.377,25.9593 C8.096,26.6623 8.141,27.8023 7.479,28.5663 C4.986,31.4453 3.621,35.1683 3.616,38.9733 C3.612,42.8283 5.005,46.5983 7.552,49.4993 C7.784,49.7633 7.929,50.0733 7.991,50.3953" id="Shape" fill="#CFC193" sketch:type="MSShapeGroup"></path>
            <path d="M64.4279,51.1565 C59.9529,51.1565 56.2919,47.4955 56.2919,43.0205 L56.2919,35.0335 C56.2919,30.5585 59.9529,26.8975 64.4279,26.8975 L66.7609,26.8975 C71.2359,26.8975 74.8979,30.5585 74.8979,35.0335 L74.8979,43.0205 C74.8979,47.4955 71.2359,51.1565 66.7609,51.1565 L64.4279,51.1565 L64.4279,51.1565 Z" id="Shape" fill="#E6DBB7" sketch:type="MSShapeGroup"></path>
            <path d="M69.4396,27.6762 C69.3246,27.0742 69.4986,26.4282 69.9646,25.9672 C70.6796,25.2592 71.8966,25.2752 72.5266,26.0492 C75.6866,29.9322 77.4336,34.3242 77.4306,39.1022 C77.4276,43.8132 75.7066,48.1612 72.6156,52.0112 C71.9896,52.7922 70.7726,52.8162 70.0536,52.1122 C69.3346,51.4092 69.2896,50.2692 69.9516,49.5052 C72.4446,46.6262 73.8096,42.9032 73.8146,39.0982 C73.8186,35.2432 72.4256,31.4732 69.8786,28.5722 C69.6466,28.3082 69.5016,27.9982 69.4396,27.6762" id="Shape" fill="#CFC193" sketch:type="MSShapeGroup"></path>
            <path d="M65.8826,38.9074 C65.8826,23.9064 53.7216,11.7464 38.7216,11.7464 C23.7206,11.7464 11.5596,23.9064 11.5596,38.9074 C11.5596,53.9084 23.7206,66.0684 38.7216,66.0684 C53.7216,66.0684 65.8826,53.9084 65.8826,38.9074" id="Shape" fill="#000000" sketch:type="MSShapeGroup"></path>
        </g>
    </g>
</svg>