<?xml version="1.0" standalone="no"?>
<!DOCTYPE svg PUBLIC "-//W3C//DTD SVG 1.1//EN" "http://www.w3.org/Graphics/SVG/1.1/DTD/svg11.dtd">
<svg width="100%" height="100%" viewBox="0 0 132 77" version="1.1" xmlns="http://www.w3.org/2000/svg" xmlns:xlink="http://www.w3.org/1999/xlink" xml:space="preserve" style="fill-rule:evenodd;clip-rule:evenodd;stroke-linejoin:round;stroke-miterlimit:1.41421;">
    <g id="Layer 1">
        <path d="M13.4656,27.0681C17.9406,27.0681 21.6016,30.7291 21.6016,35.2041L21.6016,43.1911C21.6016,47.6661 17.9406,51.3271 13.4656,51.3271L11.1326,51.3271C6.6576,51.3271 2.9956,47.6661 2.9956,43.1911L2.9956,35.2041C2.9956,30.7291 6.6576,27.0681 11.1326,27.0681L13.4656,27.0681Z" style="fill:rgb(230,219,183);fill-rule:nonzero;"/>
        <path d="M8.454,50.5485C8.569,51.1505 8.395,51.7965 7.929,52.2575C7.214,52.9655 5.997,52.9495 5.367,52.1755C2.207,48.2925 0.46,43.9005 0.463,39.1225C0.466,34.4115 2.187,30.0635 5.278,26.2135C5.904,25.4325 7.121,25.4085 7.84,26.1115C8.559,26.8155 8.604,27.9555 7.942,28.7195C5.449,31.5985 4.084,35.3215 4.079,39.1265C4.075,42.9815 5.468,46.7515 8.015,49.6525C8.247,49.9165 8.392,50.2265 8.454,50.5485" style="fill:rgb(207,193,147);fill-rule:nonzero;"/>
        <path d="M119.034,51.3097C114.559,51.3097 110.898,47.6487 110.898,43.1737L110.898,35.1867C110.898,30.7117 114.559,27.0507 119.034,27.0507L121.367,27.0507C125.843,27.0507 129.504,30.7117 129.504,35.1867L129.504,43.1737C129.504,47.6487 125.843,51.3097 121.367,51.3097L119.034,51.3097Z" style="fill:rgb(230,219,183);fill-rule:nonzero;"/>
        <path d="M124.046,27.8294C123.931,27.2274 124.105,26.5814 124.571,26.1204C125.286,25.4124 126.503,25.4284 127.133,26.2024C130.293,30.0854 132.04,34.4774 132.037,39.2554C132.034,43.9664 130.313,48.3134 127.222,52.1644C126.596,52.9454 125.379,52.9694 124.66,52.2654C123.941,51.5624 123.896,50.4224 124.558,49.6584C127.051,46.7794 128.416,43.0564 128.421,39.2514C128.425,35.3954 127.032,31.6254 124.485,28.7254C124.253,28.4614 124.108,28.1514 124.046,27.8294" style="fill:rgb(207,193,147);fill-rule:nonzero;"/>
        <path d="M46.9161,14.2497C46.9161,18.7247 43.2551,22.3857 38.7801,22.3857L30.7931,22.3857C26.3181,22.3857 22.6571,18.7247 22.6571,14.2497L22.6571,11.9157C22.6571,7.4407 26.3181,3.7797 30.7931,3.7797L38.7801,3.7797C43.2551,3.7797 46.9161,7.4407 46.9161,11.9157L46.9161,14.2497Z" style="fill:rgb(230,219,183);fill-rule:nonzero;"/>
        <path d="M23.4357,9.2381C22.8337,9.3531 22.1877,9.1791 21.7267,8.7131C21.0187,7.9981 21.0347,6.7811 21.8087,6.1511C25.6917,2.9911 30.0837,1.2441 34.8617,1.2471C39.5727,1.2501 43.9197,2.9711 47.7707,6.0621C48.5517,6.6881 48.5757,7.9051 47.8727,8.6241C47.1687,9.3431 46.0287,9.3881 45.2647,8.7261C42.3857,6.2331 38.6627,4.8681 34.8577,4.8631C31.0027,4.8591 27.2327,6.2521 24.3317,8.7991C24.0677,9.0311 23.7577,9.1761 23.4357,9.2381" style="fill:rgb(207,193,147);fill-rule:nonzero;"/>
        <path d="M22.6745,64.1281C22.6745,59.6531 26.3355,55.9921 30.8105,55.9921L38.7975,55.9921C43.2725,55.9921 46.9335,59.6531 46.9335,64.1281L46.9335,66.4611C46.9335,70.9361 43.2725,74.5981 38.7975,74.5981L30.8105,74.5981C26.3355,74.5981 22.6745,70.9361 22.6745,66.4611L22.6745,64.1281Z" style="fill:rgb(230,219,183);fill-rule:nonzero;"/>
        <path d="M46.1548,69.1398C46.7568,69.0248 47.4028,69.1988 47.8638,69.6648C48.5718,70.3798 48.5558,71.5968 47.7818,72.2268C43.8988,75.3868 39.5068,77.1338 34.7288,77.1308C30.0178,77.1278 25.6708,75.4068 21.8198,72.3158C21.0388,71.6898 21.0148,70.4728 21.7188,69.7538C22.4218,69.0348 23.5618,68.9898 24.3258,69.6518C27.2048,72.1448 30.9278,73.5098 34.7328,73.5148C38.5888,73.5188 42.3588,72.1258 45.2588,69.5788C45.5228,69.3468 45.8328,69.2018 46.1548,69.1398" style="fill:rgb(207,193,147);fill-rule:nonzero;"/>
        <path d="M79.1443,14.2497C79.1443,18.7247 75.4833,22.3857 71.0083,22.3857L63.0213,22.3857C58.5463,22.3857 54.8853,18.7247 54.8853,14.2497L54.8853,11.9157C54.8853,7.4407 58.5463,3.7797 63.0213,3.7797L71.0083,3.7797C75.4833,3.7797 79.1443,7.4407 79.1443,11.9157L79.1443,14.2497Z" style="fill:rgb(230,219,183);fill-rule:nonzero;"/>
        <path d="M55.664,9.2381C55.062,9.3531 54.416,9.1791 53.955,8.7131C53.247,7.9981 53.263,6.7811 54.037,6.1511C57.92,2.9911 62.312,1.2441 67.09,1.2471C71.801,1.2501 76.148,2.9711 79.999,6.0621C80.78,6.6881 80.804,7.9051 80.1,8.6241C79.397,9.3431 78.257,9.3881 77.493,8.7261C74.614,6.2331 70.891,4.8681 67.086,4.8631C63.23,4.8591 59.46,6.2521 56.56,8.7991C56.296,9.0311 55.986,9.1761 55.664,9.2381" style="fill:rgb(207,193,147);fill-rule:nonzero;"/>
        <path d="M54.9027,64.1281C54.9027,59.6531 58.5637,55.9921 63.0387,55.9921L71.0257,55.9921C75.5007,55.9921 79.1617,59.6531 79.1617,64.1281L79.1617,66.4611C79.1617,70.9361 75.5007,74.5981 71.0257,74.5981L63.0387,74.5981C58.5637,74.5981 54.9027,70.9361 54.9027,66.4611L54.9027,64.1281Z" style="fill:rgb(230,219,183);fill-rule:nonzero;"/>
        <path d="M78.383,69.1398C78.985,69.0248 79.631,69.1988 80.092,69.6648C80.8,70.3798 80.784,71.5968 80.01,72.2268C76.127,75.3868 71.735,77.1338 66.957,77.1308C62.246,77.1278 57.898,75.4068 54.048,72.3158C53.267,71.6898 53.243,70.4728 53.947,69.7538C54.65,69.0348 55.79,68.9898 56.554,69.6518C59.433,72.1448 63.156,73.5098 66.961,73.5148C70.816,73.5188 74.586,72.1258 77.487,69.5788C77.751,69.3468 78.061,69.2018 78.383,69.1398" style="fill:rgb(207,193,147);fill-rule:nonzero;"/>
        <path d="M111.115,14.2497C111.115,18.7247 107.454,22.3857 102.979,22.3857L94.9917,22.3857C90.5167,22.3857 86.8557,18.7247 86.8557,14.2497L86.8557,11.9157C86.8557,7.4407 90.5167,3.7797 94.9917,3.7797L102.979,3.7797C107.454,3.7797 111.115,7.4407 111.115,11.9157L111.115,14.2497Z" style="fill:rgb(230,219,183);fill-rule:nonzero;"/>
        <path d="M87.6343,9.2381C87.0323,9.3531 86.3863,9.1791 85.9253,8.7131C85.2173,7.9981 85.2333,6.7811 86.0073,6.1511C89.8903,2.9911 94.2823,1.2441 99.0603,1.2471C103.771,1.2501 108.119,2.9711 111.969,6.0621C112.75,6.6881 112.774,7.9051 112.07,8.6241C111.367,9.3431 110.227,9.3881 109.463,8.7261C106.584,6.2331 102.861,4.8681 99.0563,4.8631C95.2013,4.8591 91.4313,6.2521 88.5303,8.7991C88.2663,9.0311 87.9563,9.1761 87.6343,9.2381" style="fill:rgb(207,193,147);fill-rule:nonzero;"/>
        <path d="M86.8731,64.1281C86.8731,59.6531 90.5341,55.9921 95.0091,55.9921L102.996,55.9921C107.471,55.9921 111.132,59.6531 111.132,64.1281L111.132,66.4611C111.132,70.9361 107.471,74.5981 102.996,74.5981L95.0091,74.5981C90.5341,74.5981 86.8731,70.9361 86.8731,66.4611L86.8731,64.1281Z" style="fill:rgb(230,219,183);fill-rule:nonzero;"/>
        <path d="M110.353,69.1398C110.955,69.0248 111.601,69.1988 112.062,69.6648C112.77,70.3798 112.754,71.5968 111.98,72.2268C108.097,75.3868 103.705,77.1338 98.9274,77.1308C94.2164,77.1278 89.8684,75.4068 86.0184,72.3158C85.2374,71.6898 85.2134,70.4728 85.9174,69.7538C86.6204,69.0348 87.7604,68.9898 88.5244,69.6518C91.4034,72.1448 95.1264,73.5098 98.9314,73.5148C102.787,73.5188 106.556,72.1258 109.457,69.5788C109.721,69.3468 110.031,69.2018 110.353,69.1398" style="fill:rgb(207,193,147);fill-rule:nonzero;"/>
        <rect x="14.832" y="14.4507" width="103.143" height="49.22" style="fill:rgb(114,185,207);fill-rule:nonzero;"/>
    </g>
</svg>
