<?xml version="1.0" encoding="UTF-8" standalone="no"?>
<svg width="119px" height="119px" viewBox="0 0 119 119" version="1.1" xmlns="http://www.w3.org/2000/svg" xmlns:xlink="http://www.w3.org/1999/xlink" xmlns:sketch="http://www.bohemiancoding.com/sketch/ns">
    <!-- Generator: Sketch 3.4.2 (15855) - http://www.bohemiancoding.com/sketch -->
    <title>Layer 1</title>
    <desc>Created with Sketch.</desc>
    <defs></defs>
    <g id="Page-1" stroke="none" stroke-width="1" fill="none" fill-rule="evenodd" sketch:type="MSPage">
        <g id="Layer-1" sketch:type="MSLayerGroup">
            <path d="M71.7908,13.5829 C71.7908,18.0579 68.1298,21.7189 63.6548,21.7189 L55.6678,21.7189 C51.1928,21.7189 47.5318,18.0579 47.5318,13.5829 L47.5318,11.2499 C47.5318,6.7749 51.1928,3.1129 55.6678,3.1129 L63.6548,3.1129 C68.1298,3.1129 71.7908,6.7749 71.7908,11.2499 L71.7908,13.5829 L71.7908,13.5829 Z" id="Shape" fill="#E6DBB7" sketch:type="MSShapeGroup"></path>
            <path d="M48.3105,8.5713 C47.7085,8.6863 47.0625,8.5123 46.6015,8.0463 C45.8935,7.3313 45.9095,6.1143 46.6835,5.4843 C50.5665,2.3243 54.9585,0.5773 59.7365,0.5803 C64.4475,0.5833 68.7955,2.3043 72.6455,5.3953 C73.4265,6.0213 73.4505,7.2383 72.7465,7.9573 C72.0435,8.6763 70.9035,8.7213 70.1395,8.0593 C67.2605,5.5663 63.5375,4.2013 59.7325,4.1963 C55.8775,4.1923 52.1075,5.5853 49.2065,8.1323 C48.9425,8.3643 48.6325,8.5093 48.3105,8.5713" id="Shape" fill="#CFC193" sketch:type="MSShapeGroup"></path>
            <path d="M71.7908,105.917 C71.7908,101.442 68.1298,97.781 63.6548,97.781 L55.6678,97.781 C51.1928,97.781 47.5318,101.442 47.5318,105.917 L47.5318,108.25 C47.5318,112.725 51.1928,116.387 55.6678,116.387 L63.6548,116.387 C68.1298,116.387 71.7908,112.725 71.7908,108.25 L71.7908,105.917 L71.7908,105.917 Z" id="Shape" fill="#E6DBB7" sketch:type="MSShapeGroup"></path>
            <path d="M48.3105,110.929 C47.7085,110.814 47.0625,110.988 46.6015,111.454 C45.8935,112.169 45.9095,113.386 46.6835,114.016 C50.5665,117.176 54.9585,118.923 59.7365,118.92 C64.4475,118.917 68.7955,117.196 72.6455,114.105 C73.4265,113.479 73.4505,112.262 72.7465,111.543 C72.0435,110.824 70.9035,110.779 70.1395,111.441 C67.2605,113.934 63.5375,115.299 59.7325,115.304 C55.8775,115.308 52.1075,113.915 49.2065,111.368 C48.9425,111.136 48.6325,110.991 48.3105,110.929" id="Shape" fill="#CFC193" sketch:type="MSShapeGroup"></path>
            <path d="M101.319,36.4326 C98.0967,39.5386 92.9197,39.4436 89.8137,36.2226 L84.2707,30.4726 C81.1647,27.2516 81.2597,22.0746 84.4807,18.9686 L86.1607,17.3486 C89.3827,14.2426 94.5597,14.3376 97.6657,17.5586 L103.209,23.3086 C106.315,26.5296 106.22,31.7066 102.999,34.8126 L101.319,36.4326 L101.319,36.4326 Z" id="Shape" fill="#E6DBB7" sketch:type="MSShapeGroup"></path>
            <path d="M88.6296,16.0506 C88.1286,15.6976 87.8066,15.1106 87.8216,14.4556 C87.8446,13.4506 88.7316,12.6166 89.7236,12.7366 C94.6926,13.3386 98.9986,15.2886 102.313,18.7296 C105.581,22.1226 107.359,26.4476 107.807,31.3656 C107.898,32.3616 107.039,33.2236 106.033,33.2166 C105.027,33.2096 104.203,32.4196 104.149,31.4106 C103.946,27.6066 102.345,23.9786 99.7066,21.2366 C97.0336,18.4586 93.4146,16.7116 89.5676,16.3906 C89.2166,16.3616 88.8976,16.2396 88.6296,16.0506" id="Shape" fill="#CFC193" sketch:type="MSShapeGroup"></path>
            <path d="M34.8467,100.519 C38.0687,97.413 38.1627,92.236 35.0567,89.014 L29.5137,83.265 C26.4077,80.043 21.2307,79.949 18.0087,83.055 L16.3287,84.674 C13.1077,87.78 13.0127,92.957 16.1187,96.179 L21.6617,101.928 C24.7677,105.15 29.9457,105.245 33.1667,102.139 L34.8467,100.519 L34.8467,100.519 Z" id="Shape" fill="#E6DBB7" sketch:type="MSShapeGroup"></path>
            <path d="M14.9418,87.0938 C14.6068,86.5808 14.0328,86.2368 13.3778,86.2278 C12.3718,86.2148 11.5068,87.0708 11.5898,88.0658 C12.0108,93.0538 13.8008,97.4278 17.1188,100.866 C20.3908,104.255 24.6478,106.191 29.5458,106.818 C30.5388,106.945 31.4308,106.118 31.4608,105.112 C31.4898,104.106 30.7308,103.255 29.7248,103.164 C25.9308,102.822 22.3638,101.089 19.7198,98.3528 C17.0408,95.5808 15.4278,91.8998 15.2478,88.0438 C15.2308,87.6918 15.1208,87.3678 14.9418,87.0938" id="Shape" fill="#CFC193" sketch:type="MSShapeGroup"></path>
            <path d="M36.4625,18.04 C39.5595,21.27 39.4515,26.447 36.2215,29.544 L30.4575,35.072 C27.2285,38.17 22.0515,38.061 18.9535,34.832 L17.3385,33.147 C14.2415,29.918 14.3495,24.741 17.5795,21.643 L23.3435,16.115 C26.5735,13.018 31.7495,13.126 34.8475,16.356 L36.4625,18.04 L36.4625,18.04 Z" id="Shape" fill="#E6DBB7" sketch:type="MSShapeGroup"></path>
            <path d="M16.047,30.6754 C15.693,31.1754 15.105,31.4964 14.45,31.4794 C13.444,31.4534 12.613,30.5644 12.736,29.5734 C13.351,24.6054 15.312,20.3044 18.762,16.9994 C22.164,13.7404 26.494,11.9734 31.412,11.5394 C32.409,11.4514 33.269,12.3124 33.259,13.3184 C33.249,14.3244 32.457,15.1454 31.448,15.1964 C27.644,15.3904 24.011,16.9814 21.262,19.6124 C18.477,22.2774 16.72,25.8924 16.39,29.7384 C16.359,30.0884 16.236,30.4084 16.047,30.6754" id="Shape" fill="#CFC193" sketch:type="MSShapeGroup"></path>
            <path d="M100.373,84.6806 C97.2765,81.4506 92.0995,81.3426 88.8695,84.4396 L83.1055,89.9686 C79.8755,93.0656 79.7675,98.2426 82.8645,101.473 L84.4795,103.157 C87.5775,106.386 92.7545,106.495 95.9835,103.397 L101.748,97.8686 C104.977,94.7716 105.086,89.5946 101.988,86.3646 L100.373,84.6806 L100.373,84.6806 Z" id="Shape" fill="#E6DBB7" sketch:type="MSShapeGroup"></path>
            <path d="M86.8958,104.55 C86.3818,104.883 86.0368,105.457 86.0258,106.112 C86.0098,107.118 86.8638,107.985 87.8588,107.904 C92.8478,107.497 97.2268,105.718 100.673,102.409 C104.072,99.1461 106.018,94.8941 106.658,89.9981 C106.788,89.0061 105.963,88.1111 104.958,88.0791 C103.952,88.0471 103.099,88.8041 103.005,89.8101 C102.653,93.6021 100.911,97.1651 98.1668,99.8021 C95.3878,102.473 91.7028,104.077 87.8458,104.247 C87.4948,104.262 87.1708,104.372 86.8958,104.55" id="Shape" fill="#CFC193" sketch:type="MSShapeGroup"></path>
            <path d="M105.837,71.8708 C101.362,71.8708 97.7011,68.2098 97.7011,63.7348 L97.7011,55.7478 C97.7011,51.2728 101.362,47.6118 105.837,47.6118 L108.17,47.6118 C112.645,47.6118 116.307,51.2728 116.307,55.7478 L116.307,63.7348 C116.307,68.2098 112.645,71.8708 108.17,71.8708 L105.837,71.8708 L105.837,71.8708 Z" id="Shape" fill="#E6DBB7" sketch:type="MSShapeGroup"></path>
            <path d="M110.849,48.3905 C110.734,47.7885 110.908,47.1425 111.374,46.6815 C112.089,45.9735 113.306,45.9895 113.936,46.7635 C117.096,50.6465 118.843,55.0385 118.84,59.8165 C118.837,64.5275 117.116,68.8755 114.025,72.7255 C113.399,73.5065 112.182,73.5305 111.463,72.8265 C110.744,72.1235 110.699,70.9835 111.361,70.2195 C113.854,67.3405 115.219,63.6175 115.224,59.8125 C115.228,55.9575 113.835,52.1875 111.288,49.2865 C111.056,49.0225 110.911,48.7125 110.849,48.3905" id="Shape" fill="#CFC193" sketch:type="MSShapeGroup"></path>
            <path d="M13.503,71.8708 C17.978,71.8708 21.639,68.2098 21.639,63.7348 L21.639,55.7478 C21.639,51.2728 17.978,47.6118 13.503,47.6118 L11.17,47.6118 C6.695,47.6118 3.033,51.2728 3.033,55.7478 L3.033,63.7348 C3.033,68.2098 6.695,71.8708 11.17,71.8708 L13.503,71.8708 L13.503,71.8708 Z" id="Shape" fill="#E6DBB7" sketch:type="MSShapeGroup"></path>
            <path d="M8.4913,48.3905 C8.6063,47.7885 8.4323,47.1425 7.9663,46.6815 C7.2513,45.9735 6.0343,45.9895 5.4043,46.7635 C2.2443,50.6465 0.4973,55.0385 0.5003,59.8165 C0.5033,64.5275 2.2243,68.8755 5.3153,72.7255 C5.9413,73.5065 7.1583,73.5305 7.8773,72.8265 C8.5963,72.1235 8.6413,70.9835 7.9793,70.2195 C5.4863,67.3405 4.1213,63.6175 4.1163,59.8125 C4.1123,55.9575 5.5053,52.1875 8.0523,49.2865 C8.2843,49.0225 8.4293,48.7125 8.4913,48.3905" id="Shape" fill="#CFC193" sketch:type="MSShapeGroup"></path>
            <path d="M78.9297,103.753 L42.1877,103.596 L16.4527,77.9534 L16.3857,41.4364 L42.0287,15.7004 L78.7697,15.4094 L104.506,41.0524 L104.573,78.0174 L78.9297,103.753 L78.9297,103.753 Z" id="Shape" fill="#000000" sketch:type="MSShapeGroup"></path>
        </g>
    </g>
</svg>