<?xml version="1.0" encoding="UTF-8" standalone="no"?>
<svg width="80px" height="15px" viewBox="0 0 80 15" version="1.1" xmlns="http://www.w3.org/2000/svg" xmlns:xlink="http://www.w3.org/1999/xlink" xmlns:sketch="http://www.bohemiancoding.com/sketch/ns">
    <!-- Generator: Sketch 3.3.3 (12072) - http://www.bohemiancoding.com/sketch -->
    <title>Slice 1</title>
    <desc>Created with Sketch.</desc>
    <defs></defs>
    <g id="Page-1" stroke="none" stroke-width="1" fill="none" fill-rule="evenodd" sketch:type="MSPage">
        <g id="separator2" sketch:type="MSLayerGroup" fill="#CFC193">
            <rect id="Rectangle-path" sketch:type="MSShapeGroup" x="0" y="0" width="80" height="15"></rect>
        </g>
    </g>
</svg>