<?xml version="1.0" encoding="UTF-8" standalone="no"?>
<!DOCTYPE svg PUBLIC "-//W3C//DTD SVG 1.1//EN"
"http://www.w3.org/Graphics/SVG/1.1/DTD/svg11.dtd">
<svg version="1.1" xmlns="http://www.w3.org/2000/svg" xmlns:xlink="http://www.w3.org/1999/xlink">
<defs>
<clipPath id="c0_25"><path d="M12.5,1197.5l0,-1185l910,0l0,1185Z" /></clipPath>
<style type="text/css"><![CDATA[
.g1_25{
fill: none;
stroke: #FF0000;
stroke-width: 4;
stroke-linecap: butt;
stroke-linejoin: round;
}
]]></style>
</defs>
<image x="110" y="254" width="716" height="359" xlink:href="img/1.png" />
<g clip-path="url(#c0_25)">
<path d="M135,537l126,0l0,42l-126,0Z" class="g1_25" />
</g>
</svg>